<?xml version="1.0" encoding="UTF-8"?>
<svg width="275px" height="56px" viewBox="0 0 275 56" version="1.1" xmlns="http://www.w3.org/2000/svg" xmlns:xlink="http://www.w3.org/1999/xlink">
    <!-- Generator: Sketch 57.1 (83088) - https://sketch.com -->
    <title>simpletax</title>
    <desc>Created with Sketch.</desc>
    <g id="simpletax" stroke="none" stroke-width="1" fill="none" fill-rule="evenodd">
        <path d="M11.809,1.09 C5.192,2.439 1.058,6.767 1.066,12.336 C1.076,18.695 4.083,21.288 15.125,24.46 C23.392,26.834 26.063,28.798 26.063,32.502 C26.063,41.092 12.394,42.985 4.15,35.537 L2.648,34.18 L1.682,35.289 C-0.424,37.708 -0.462,38.103 1.265,39.561 C11.42,48.136 29.223,45.265 31.062,34.755 C32.462,26.762 28.869,22.874 16.883,19.405 C6.927,16.524 4.606,14.212 6.914,9.471 C9.481,4.195 20.749,4.022 26.197,9.176 L27.308,10.227 L28.848,8.469 L30.389,6.711 L28.808,5.287 C24.937,1.802 17.42,-0.055 11.809,1.09 M142.436,2.023 C142.418,2.346 142.387,11.882 142.368,23.215 L142.334,43.82 L144.55,43.937 L146.766,44.055 L146.766,22.746 L146.766,1.438 L144.617,1.438 C142.983,1.438 142.461,1.578 142.436,2.023 M183.484,3.577 L183.484,5.716 L190.223,5.823 L196.961,5.93 L197.062,24.973 L197.164,44.016 L199.504,44.016 C201.454,44.016 201.851,43.902 201.89,43.332 C201.915,42.956 201.98,34.562 202.034,24.68 C202.087,14.797 202.154,6.491 202.183,6.223 C202.222,5.853 203.85,5.734 208.875,5.734 L215.516,5.734 L215.516,3.586 L215.516,1.438 L199.5,1.438 L183.484,1.438 L183.484,3.577 M40.644,2.806 C38.629,3.654 38.266,6.309 39.982,7.659 C42.671,9.774 46.056,6.834 44.43,3.797 C43.835,2.685 42.045,2.217 40.644,2.806 M65.711,12.919 C63.499,13.615 62.456,14.206 60.34,15.961 L58.484,17.5 L58.484,15.308 L58.484,13.117 L56.238,13.234 L53.992,13.352 L53.949,28.195 C53.9,45.432 53.682,44.016 56.378,44.016 L58.484,44.016 L58.484,32.525 L58.484,21.035 L60.34,19.388 C62.893,17.122 64.384,16.559 67.335,16.746 C72.282,17.061 72.547,17.861 72.547,32.473 L72.547,44.055 L74.793,43.937 L77.039,43.82 L77.103,33.859 C77.139,28.381 77.183,23.216 77.201,22.382 C77.286,18.508 84.633,15.226 88.613,17.284 C91.059,18.549 91.279,19.806 91.288,32.59 L91.297,44.016 L93.404,44.016 C96.066,44.016 95.858,45.16 95.787,30.93 C95.73,19.642 95.672,18.698 94.925,17.02 C92.383,11.306 84.027,10.991 78.489,16.4 C76.85,18 76.091,18.018 76.068,16.456 C76.032,13.943 69.521,11.72 65.711,12.919 M116.756,13.213 C115.185,13.755 113.6,14.683 112.402,15.759 C110.036,17.886 110.047,17.888 110.047,15.305 L110.047,13.156 L107.898,13.156 L105.75,13.156 L105.75,34.445 L105.75,55.734 L107.898,55.734 L110.047,55.734 L110.047,47.481 L110.047,39.229 L111.834,40.876 C118.988,47.47 130.007,44.681 133.098,35.494 C137.67,21.906 128.355,9.206 116.756,13.213 M166.395,12.954 C152.554,16.845 150.662,36.82 163.535,43.142 C168.331,45.498 176.812,44.51 181.32,41.071 L182.684,40.032 L181.67,38.703 C180.464,37.121 180.225,37.09 178.762,38.321 C172.042,43.975 161.362,40.081 159.829,31.418 L159.569,29.953 L172.113,29.953 L184.656,29.953 L184.65,28.488 C184.609,18.048 175.587,10.371 166.395,12.954 M224.399,12.96 C221.158,13.782 216.688,16.395 216.688,17.469 C216.688,18.509 218.572,20.545 219.028,19.996 C222.088,16.309 230.127,15.274 233.521,18.13 C235.408,19.717 235.828,20.945 235.828,24.862 L235.828,28.404 L233.839,27.035 C227.301,22.538 217.295,24.694 215.55,30.976 C212.573,41.697 224.391,48.718 233.906,41.882 L235.785,40.532 L235.904,42.176 L236.023,43.82 L238.299,43.938 L240.576,44.056 L240.442,32.024 C240.295,18.734 240.205,18.202 237.684,15.597 C235.181,13.01 229.023,11.788 224.399,12.96 M39.734,28.586 L39.734,44.016 L41.883,44.016 L44.031,44.016 L44.031,28.586 L44.031,13.156 L41.883,13.156 L39.734,13.156 L39.734,28.586 M247.402,13.645 C247.562,13.913 250.033,17.271 252.892,21.107 L258.09,28.08 L257.347,29.114 C256.938,29.683 254.318,33.225 251.525,36.984 L246.446,43.82 L248.852,43.94 C251.665,44.08 250.987,44.693 256.697,36.844 C258.829,33.913 260.716,31.516 260.89,31.516 C261.172,31.516 265.413,37.069 269.021,42.16 L270.336,44.016 L272.808,44.016 C275.895,44.016 276.219,44.836 269.754,36.286 C266.714,32.266 264.154,28.704 264.064,28.37 C263.973,28.027 266.199,24.682 269.201,20.655 C275.409,12.326 275.093,13.156 272.058,13.156 L269.616,13.156 L265.346,19.016 C260.464,25.715 260.977,25.349 259.475,23.207 C258.838,22.298 256.924,19.665 255.223,17.355 L252.13,13.156 L249.62,13.156 C247.717,13.156 247.181,13.274 247.402,13.645 M173.383,16.735 C176.638,17.71 179.969,22.064 179.969,25.342 L179.969,26.828 L169.813,26.828 C158.292,26.828 159.144,27.132 160.246,23.421 C161.847,18.029 167.722,15.038 173.383,16.735 M123.523,17.414 C131.744,21.228 131.438,36.419 123.071,39.915 C119.727,41.312 115.127,40.308 112.002,37.498 L110.047,35.74 L110.047,28.684 C110.047,21.77 110.066,21.603 111.018,20.355 C113.447,17.171 119.786,15.68 123.523,17.414 M232.308,28.828 C235.455,30.215 235.828,30.81 235.828,34.44 C235.828,42.782 222.182,44.266 219.762,36.188 C217.935,30.091 225.329,25.753 232.308,28.828" fill="#FFFFFF"></path>
    </g>
</svg>